<?xml version="1.0" encoding="UTF-8" standalone="no"?>
<!-- Created with Inkscape (http://www.inkscape.org/) -->

<svg
   xmlns:dc="http://purl.org/dc/elements/1.1/"
   xmlns:cc="http://creativecommons.org/ns#"
   xmlns:rdf="http://www.w3.org/1999/02/22-rdf-syntax-ns#"
   xmlns:svg="http://www.w3.org/2000/svg"
   xmlns="http://www.w3.org/2000/svg"
   xmlns:sodipodi="http://sodipodi.sourceforge.net/DTD/sodipodi-0.dtd"
   xmlns:inkscape="http://www.inkscape.org/namespaces/inkscape"
   width="1338.7109"
   height="492"
   id="svg2"
   version="1.1"
   inkscape:version="0.48.5 r10040"
   sodipodi:docname="instrumentation_pptrace_arm.svg">
  <defs
     id="defs4">
    <marker
       inkscape:stockid="Arrow1Mend"
       orient="auto"
       refY="0"
       refX="0"
       id="Arrow1Mend"
       style="overflow:visible">
      <path
         id="path4321"
         d="M 0,0 5,-5 -12.5,0 5,5 0,0 z"
         style="fill-rule:evenodd;stroke:#000000;stroke-width:1pt"
         transform="matrix(-0.4,0,0,-0.4,-4,0)"
         inkscape:connector-curvature="0" />
    </marker>
    <marker
       inkscape:stockid="Arrow1Mend"
       orient="auto"
       refY="0"
       refX="0"
       id="Arrow1Mend-0"
       style="overflow:visible">
      <path
         inkscape:connector-curvature="0"
         id="path4321-9"
         d="M 0,0 5,-5 -12.5,0 5,5 0,0 z"
         style="fill-rule:evenodd;stroke:#000000;stroke-width:1pt"
         transform="matrix(-0.4,0,0,-0.4,-4,0)" />
    </marker>
    <marker
       inkscape:stockid="Arrow1Mend"
       orient="auto"
       refY="0"
       refX="0"
       id="Arrow1Mend-3"
       style="overflow:visible">
      <path
         inkscape:connector-curvature="0"
         id="path4321-5"
         d="M 0,0 5,-5 -12.5,0 5,5 0,0 z"
         style="fill-rule:evenodd;stroke:#000000;stroke-width:1pt"
         transform="matrix(-0.4,0,0,-0.4,-4,0)" />
    </marker>
    <marker
       inkscape:stockid="Arrow1Mend"
       orient="auto"
       refY="0"
       refX="0"
       id="Arrow1Mend-6"
       style="overflow:visible">
      <path
         inkscape:connector-curvature="0"
         id="path4321-0"
         d="M 0,0 5,-5 -12.5,0 5,5 0,0 z"
         style="fill-rule:evenodd;stroke:#000000;stroke-width:1pt"
         transform="matrix(-0.4,0,0,-0.4,-4,0)" />
    </marker>
    <marker
       inkscape:stockid="Arrow1Mend"
       orient="auto"
       refY="0"
       refX="0"
       id="Arrow1Mend-38"
       style="overflow:visible">
      <path
         id="path4321-3"
         d="M 0,0 5,-5 -12.5,0 5,5 0,0 z"
         style="fill-rule:evenodd;stroke:#000000;stroke-width:1pt"
         transform="matrix(-0.4,0,0,-0.4,-4,0)"
         inkscape:connector-curvature="0" />
    </marker>
  </defs>
  <sodipodi:namedview
     id="base"
     pagecolor="#ffffff"
     bordercolor="#666666"
     borderopacity="1.0"
     inkscape:pageopacity="0.0"
     inkscape:pageshadow="2"
     inkscape:zoom="1.979899"
     inkscape:cx="332.99588"
     inkscape:cy="232.05954"
     inkscape:document-units="px"
     inkscape:current-layer="layer1"
     showgrid="true"
     inkscape:window-width="1920"
     inkscape:window-height="1060"
     inkscape:window-x="-2"
     inkscape:window-y="-3"
     inkscape:window-maximized="1"
     fit-margin-top="0"
     fit-margin-left="0"
     fit-margin-right="0"
     fit-margin-bottom="0">
    <inkscape:grid
       type="xygrid"
       id="grid2985"
       empspacing="5"
       visible="true"
       enabled="true"
       snapvisiblegridlinesonly="true"
       originx="177.71092px"
       originy="-398.98718px" />
  </sodipodi:namedview>
  <metadata
     id="metadata7">
    <rdf:RDF>
      <cc:Work
         rdf:about="">
        <dc:format>image/svg+xml</dc:format>
        <dc:type
           rdf:resource="http://purl.org/dc/dcmitype/StillImage" />
        <dc:title />
      </cc:Work>
    </rdf:RDF>
  </metadata>
  <g
     inkscape:label="Layer 1"
     inkscape:groupmode="layer"
     id="layer1"
     transform="translate(177.71092,-161.375)">
    <rect
       style="fill:#ffffff;fill-opacity:1;fill-rule:nonzero;stroke:#000000;stroke-width:2;stroke-miterlimit:4;stroke-opacity:1;stroke-dasharray:none;stroke-dashoffset:0"
       id="rect2987"
       width="310"
       height="490"
       x="-170"
       y="162.36218"
       ry="6.7710459e-09" />
    <flowRoot
       xml:space="preserve"
       id="flowRoot3757"
       style="font-size:40px;font-style:normal;font-weight:normal;line-height:125%;letter-spacing:0px;word-spacing:0px;fill:#000000;fill-opacity:1;stroke:none;font-family:Sans"
       transform="translate(-200,-20)"><flowRegion
         id="flowRegion3759"><rect
           id="rect3761"
           width="300.35715"
           height="56.07143"
           x="35"
           y="184.50504" /></flowRegion><flowPara
         id="flowPara3763"
         style="font-size:22px">Application</flowPara></flowRoot>    <flowRoot
       xml:space="preserve"
       id="flowRoot3765"
       style="font-size:40px;font-style:normal;font-weight:normal;line-height:125%;letter-spacing:0px;word-spacing:0px;fill:#000000;fill-opacity:1;stroke:none;font-family:Sans"
       transform="translate(-200,-20)"><flowRegion
         id="flowRegion3767"><rect
           id="rect3769"
           width="216.42857"
           height="70.714287"
           x="35"
           y="252.36218" /></flowRegion><flowPara
         id="flowPara3771"
         style="font-size:22px;font-style:normal;font-variant:normal;font-weight:normal;font-stretch:normal;font-family:FreeMono;-inkscape-font-specification:FreeMono">foo():</flowPara></flowRoot>    <rect
       style="fill:#ffffff;fill-opacity:1;fill-rule:nonzero;stroke:#000000;stroke-width:1.18321598;stroke-miterlimit:4;stroke-opacity:1;stroke-dasharray:none;stroke-dashoffset:0"
       id="rect3773"
       width="140"
       height="30"
       x="-110"
       y="262.36218"
       ry="4.0626276e-09" />
    <flowRoot
       transform="translate(-129,7.987183)"
       xml:space="preserve"
       id="flowRoot3765-6"
       style="font-size:40px;font-style:normal;font-weight:normal;line-height:125%;letter-spacing:0px;word-spacing:0px;fill:#000000;fill-opacity:1;stroke:none;font-family:Sans"><flowRegion
         id="flowRegion3767-7"><rect
           id="rect3769-2"
           width="216.42857"
           height="70.714287"
           x="35"
           y="252.36218" /></flowRegion><flowPara
         id="flowPara3771-8"
         style="font-size:22px;font-style:normal;font-variant:normal;font-weight:normal;font-stretch:normal;font-family:FreeMono;-inkscape-font-specification:FreeMono">opcode 1</flowPara></flowRoot>    <rect
       style="fill:#ffffff;fill-opacity:1;fill-rule:nonzero;stroke:#000000;stroke-width:1.18321598;stroke-miterlimit:4;stroke-opacity:1;stroke-dasharray:none;stroke-dashoffset:0"
       id="rect3773-5"
       width="140"
       height="30"
       x="-110"
       y="292.36218"
       ry="4.0626276e-09" />
    <flowRoot
       transform="translate(-129,37.987183)"
       xml:space="preserve"
       id="flowRoot3765-6-8"
       style="font-size:40px;font-style:normal;font-weight:normal;line-height:125%;letter-spacing:0px;word-spacing:0px;fill:#000000;fill-opacity:1;stroke:none;font-family:Sans"><flowRegion
         id="flowRegion3767-7-4"><rect
           id="rect3769-2-5"
           width="216.42857"
           height="70.714287"
           x="35"
           y="252.36218" /></flowRegion><flowPara
         id="flowPara3771-8-2"
         style="font-size:22px;font-style:normal;font-variant:normal;font-weight:normal;font-stretch:normal;font-family:FreeMono;-inkscape-font-specification:FreeMono">opcode 2</flowPara></flowRoot>    <rect
       style="fill:#ffffff;fill-opacity:1;fill-rule:nonzero;stroke:#000000;stroke-width:1.18321598;stroke-miterlimit:4;stroke-opacity:1;stroke-dasharray:none;stroke-dashoffset:0"
       id="rect3773-7"
       width="140"
       height="30"
       x="-110"
       y="322.36218"
       ry="4.0626276e-09" />
    <flowRoot
       transform="translate(-129,67.987183)"
       xml:space="preserve"
       id="flowRoot3765-6-7"
       style="font-size:40px;font-style:normal;font-weight:normal;line-height:125%;letter-spacing:0px;word-spacing:0px;fill:#000000;fill-opacity:1;stroke:none;font-family:Sans"><flowRegion
         id="flowRegion3767-7-0"><rect
           id="rect3769-2-8"
           width="216.42857"
           height="70.714287"
           x="35"
           y="252.36218" /></flowRegion><flowPara
         id="flowPara3771-8-0"
         style="font-size:22px;font-style:normal;font-variant:normal;font-weight:normal;font-stretch:normal;font-family:FreeMono;-inkscape-font-specification:FreeMono">opcode 3</flowPara></flowRoot>    <rect
       style="fill:#ffffff;fill-opacity:1;fill-rule:nonzero;stroke:#000000;stroke-width:1.18321598;stroke-miterlimit:4;stroke-opacity:1;stroke-dasharray:none;stroke-dashoffset:0"
       id="rect3773-5-2"
       width="140"
       height="30"
       x="-110"
       y="352.36218"
       ry="4.0626276e-09" />
    <flowRoot
       transform="translate(-129,97.98718)"
       xml:space="preserve"
       id="flowRoot3765-6-8-8"
       style="font-size:40px;font-style:normal;font-weight:normal;line-height:125%;letter-spacing:0px;word-spacing:0px;fill:#000000;fill-opacity:1;stroke:none;font-family:Sans"><flowRegion
         id="flowRegion3767-7-4-0"><rect
           id="rect3769-2-5-6"
           width="216.42857"
           height="70.714287"
           x="35"
           y="252.36218" /></flowRegion><flowPara
         id="flowPara3771-8-2-0"
         style="font-size:22px;font-style:normal;font-variant:normal;font-weight:normal;font-stretch:normal;font-family:FreeMono;-inkscape-font-specification:FreeMono">...</flowPara></flowRoot>    <rect
       style="fill:#ffffff;fill-opacity:1;fill-rule:nonzero;stroke:#000000;stroke-width:1.18321598;stroke-miterlimit:4;stroke-opacity:1;stroke-dasharray:none;stroke-dashoffset:0"
       id="rect3773-5-2-1"
       width="140"
       height="30"
       x="-110"
       y="382.36218"
       ry="4.0626276e-09" />
    <flowRoot
       transform="translate(-129,127.98718)"
       xml:space="preserve"
       id="flowRoot3765-6-8-8-7"
       style="font-size:40px;font-style:normal;font-weight:normal;line-height:125%;letter-spacing:0px;word-spacing:0px;fill:#000000;fill-opacity:1;stroke:none;font-family:Sans"><flowRegion
         id="flowRegion3767-7-4-0-8"><rect
           id="rect3769-2-5-6-2"
           width="216.42857"
           height="70.714287"
           x="35"
           y="252.36218" /></flowRegion><flowPara
         id="flowPara3771-8-2-0-0"
         style="font-size:22px;font-style:normal;font-variant:normal;font-weight:normal;font-stretch:normal;font-family:FreeMono;-inkscape-font-specification:FreeMono">ret</flowPara></flowRoot>    <flowRoot
       transform="translate(-185,297.98718)"
       xml:space="preserve"
       id="flowRoot3765-2"
       style="font-size:40px;font-style:normal;font-weight:normal;line-height:125%;letter-spacing:0px;word-spacing:0px;fill:#000000;fill-opacity:1;stroke:none;font-family:Sans"><flowRegion
         id="flowRegion3767-3"><rect
           id="rect3769-8"
           width="216.42857"
           height="70.714287"
           x="35"
           y="252.36218" /></flowRegion><flowPara
         id="flowPara3771-1"
         style="font-size:22px;font-style:normal;font-variant:normal;font-weight:normal;font-stretch:normal;font-family:FreeMono;-inkscape-font-specification:FreeMono">call foo()</flowPara></flowRoot>    <rect
       style="fill:#ffffff;fill-opacity:1;fill-rule:nonzero;stroke:#000000;stroke-width:2;stroke-miterlimit:4;stroke-opacity:1;stroke-dasharray:none;stroke-dashoffset:0"
       id="rect2987-5"
       width="310"
       height="300"
       x="850"
       y="172.36218"
       ry="6.7710459e-09" />
    <flowRoot
       transform="translate(820,-10)"
       xml:space="preserve"
       id="flowRoot3757-8"
       style="font-size:40px;font-style:normal;font-weight:normal;line-height:125%;letter-spacing:0px;word-spacing:0px;fill:#000000;fill-opacity:1;stroke:none;font-family:Sans"><flowRegion
         id="flowRegion3759-8"><rect
           id="rect3761-3"
           width="300.35715"
           height="56.07143"
           x="35"
           y="184.50504" /></flowRegion><flowPara
         id="flowPara3763-5"
         style="font-size:22px">libeztrace-foo</flowPara></flowRoot>    <flowRoot
       transform="translate(820,-10)"
       xml:space="preserve"
       id="flowRoot3765-0"
       style="font-size:40px;font-style:normal;font-weight:normal;line-height:125%;letter-spacing:0px;word-spacing:0px;fill:#000000;fill-opacity:1;stroke:none;font-family:Sans"><flowRegion
         id="flowRegion3767-1"><rect
           id="rect3769-3"
           width="216.42857"
           height="70.714287"
           x="35"
           y="252.36218" /></flowRegion><flowPara
         id="flowPara3771-15"
         style="font-size:22px;font-style:normal;font-variant:normal;font-weight:normal;font-stretch:normal;font-family:FreeMono;-inkscape-font-specification:FreeMono">foo():</flowPara></flowRoot>    <rect
       style="fill:#ffffff;fill-opacity:1;fill-rule:nonzero;stroke:#000000;stroke-width:1.18321598;stroke-miterlimit:4;stroke-opacity:1;stroke-dasharray:none;stroke-dashoffset:0"
       id="rect3773-8"
       width="240"
       height="29.999998"
       x="910"
       y="272.36218"
       ry="4.0626276e-09" />
    <flowRoot
       transform="translate(891,17.98718)"
       xml:space="preserve"
       id="flowRoot3765-6-5"
       style="font-size:40px;font-style:normal;font-weight:normal;line-height:125%;letter-spacing:0px;word-spacing:0px;fill:#000000;fill-opacity:1;stroke:none;font-family:Sans"><flowRegion
         id="flowRegion3767-7-5"><rect
           id="rect3769-2-55"
           width="216.42857"
           height="70.714287"
           x="35"
           y="252.36218" /></flowRegion><flowPara
         id="flowPara3771-8-3"
         style="font-size:22px;font-style:normal;font-variant:normal;font-weight:normal;font-stretch:normal;font-family:FreeMono;-inkscape-font-specification:FreeMono">record_event</flowPara></flowRoot>    <rect
       style="fill:#ffffff;fill-opacity:1;fill-rule:nonzero;stroke:#000000;stroke-width:1.18321598;stroke-miterlimit:4;stroke-opacity:1;stroke-dasharray:none;stroke-dashoffset:0"
       id="rect3773-5-8"
       width="240"
       height="29.999998"
       x="910"
       y="302.36218"
       ry="4.0626276e-09" />
    <flowRoot
       transform="translate(891,47.98718)"
       xml:space="preserve"
       id="flowRoot3765-6-8-7"
       style="font-size:40px;font-style:normal;font-weight:normal;line-height:125%;letter-spacing:0px;word-spacing:0px;fill:#000000;fill-opacity:1;stroke:none;font-family:Sans"><flowRegion
         id="flowRegion3767-7-4-4"><rect
           id="rect3769-2-5-0"
           width="304"
           height="62.012817"
           x="35"
           y="252.36218" /></flowRegion><flowPara
         id="flowPara3771-8-2-6"
         style="font-size:22px;font-style:normal;font-variant:normal;font-weight:normal;font-stretch:normal;font-family:FreeMono;-inkscape-font-specification:FreeMono">call *(<flowSpan
   style="font-weight:bold;fill:#007103;fill-opacity:1;-inkscape-font-specification:FreeMono Bold"
   id="flowSpan5533">orig_addr</flowSpan>)°f_orig</flowPara></flowRoot>    <rect
       style="fill:#ffffff;fill-opacity:1;fill-rule:nonzero;stroke:#000000;stroke-width:1.18321598;stroke-miterlimit:4;stroke-opacity:1;stroke-dasharray:none;stroke-dashoffset:0"
       id="rect3773-7-4"
       width="240"
       height="29.999998"
       x="910"
       y="332.36218"
       ry="4.0626276e-09" />
    <flowRoot
       transform="translate(891,77.98718)"
       xml:space="preserve"
       id="flowRoot3765-6-7-1"
       style="font-size:40px;font-style:normal;font-weight:normal;line-height:125%;letter-spacing:0px;word-spacing:0px;fill:#000000;fill-opacity:1;stroke:none;font-family:Sans"><flowRegion
         id="flowRegion3767-7-0-3"><rect
           id="rect3769-2-8-2"
           width="216.42857"
           height="70.714287"
           x="35"
           y="252.36218" /></flowRegion><flowPara
         id="flowPara3771-8-0-3"
         style="font-size:22px;font-style:normal;font-variant:normal;font-weight:normal;font-stretch:normal;font-family:FreeMono;-inkscape-font-specification:FreeMono">record_event</flowPara></flowRoot>    <flowRoot
       transform="translate(641,117.98718)"
       xml:space="preserve"
       id="flowRoot3765-6-8-8-6"
       style="font-size:40px;font-style:normal;font-weight:normal;line-height:125%;letter-spacing:0px;word-spacing:0px;fill:#000000;fill-opacity:1;stroke:none;font-family:Sans"><flowRegion
         id="flowRegion3767-7-4-0-6"><rect
           id="rect3769-2-5-6-4"
           width="216.42857"
           height="70.714287"
           x="35"
           y="252.36218" /></flowRegion><flowPara
         id="flowPara3771-8-2-0-7"
         style="font-size:22px;font-style:normal;font-variant:normal;font-weight:normal;font-stretch:normal;font-family:FreeMono;-inkscape-font-specification:FreeMono" /></flowRoot>    <rect
       style="fill:#ffffff;fill-opacity:1;fill-rule:nonzero;stroke:#000000;stroke-width:1.18321598;stroke-miterlimit:4;stroke-opacity:1;stroke-dasharray:none;stroke-dashoffset:0"
       id="rect3773-5-2-1-3"
       width="240"
       height="29.999998"
       x="910"
       y="362.36218"
       ry="4.0626276e-09" />
    <flowRoot
       transform="translate(891,107.98718)"
       xml:space="preserve"
       id="flowRoot3765-6-8-8-7-4"
       style="font-size:40px;font-style:normal;font-weight:normal;line-height:125%;letter-spacing:0px;word-spacing:0px;fill:#000000;fill-opacity:1;stroke:none;font-family:Sans"><flowRegion
         id="flowRegion3767-7-4-0-8-7"><rect
           id="rect3769-2-5-6-2-7"
           width="216.42857"
           height="70.714287"
           x="35"
           y="252.36218" /></flowRegion><flowPara
         id="flowPara3771-8-2-0-0-2"
         style="font-size:22px;font-style:normal;font-variant:normal;font-weight:normal;font-stretch:normal;font-family:FreeMono;-inkscape-font-specification:FreeMono">ret</flowPara></flowRoot>    <rect
       style="fill:#ffffff;fill-opacity:1;fill-rule:nonzero;stroke:#000000;stroke-width:2;stroke-miterlimit:4;stroke-opacity:1;stroke-dasharray:none;stroke-dashoffset:0"
       id="rect2987-5-8"
       width="300"
       height="340"
       x="435"
       y="172.36218"
       ry="6.7710459e-09" />
    <flowRoot
       transform="translate(405,-9.999997)"
       xml:space="preserve"
       id="flowRoot3757-8-5"
       style="font-size:40px;font-style:normal;font-weight:normal;line-height:125%;letter-spacing:0px;word-spacing:0px;fill:#000000;fill-opacity:1;stroke:none;font-family:Sans"><flowRegion
         id="flowRegion3759-8-6"><rect
           id="rect3761-3-3"
           width="300.35715"
           height="56.07143"
           x="35"
           y="184.50504" /></flowRegion><flowPara
         id="flowPara3763-5-2"
         style="font-size:22px">pptrace_allocated</flowPara></flowRoot>    <flowRoot
       transform="translate(404,100)"
       xml:space="preserve"
       id="flowRoot3765-0-4-3"
       style="font-size:40px;font-style:normal;font-weight:normal;line-height:125%;letter-spacing:0px;word-spacing:0px;fill:#000000;fill-opacity:1;stroke:none;font-family:Sans"><flowRegion
         id="flowRegion3767-1-8-8"><rect
           id="rect3769-3-2-1"
           width="216.42857"
           height="70.714287"
           x="35"
           y="252.36218" /></flowRegion><flowPara
         id="flowPara3771-15-3-0"
         style="font-size:22px;font-style:normal;font-variant:normal;font-weight:normal;font-stretch:normal;font-family:FreeMono;-inkscape-font-specification:FreeMono"><flowSpan
   style="font-weight:bold;fill:#007103;fill-opacity:1;-inkscape-font-specification:FreeMono Bold"
   id="flowSpan4839">reloc_addr</flowSpan>:</flowPara></flowRoot>    <rect
       style="fill:#ffffff;fill-opacity:1;fill-rule:nonzero;stroke:#000000;stroke-width:1.18321598;stroke-miterlimit:4;stroke-opacity:1;stroke-dasharray:none;stroke-dashoffset:0"
       id="rect3773-8-2-6"
       width="230"
       height="30"
       x="495"
       y="382.36218"
       ry="4.0626276e-09" />
    <flowRoot
       transform="translate(476,127.98718)"
       xml:space="preserve"
       id="flowRoot3765-6-5-2-6"
       style="font-size:40px;font-style:normal;font-weight:normal;line-height:125%;letter-spacing:0px;word-spacing:0px;fill:#000000;fill-opacity:1;stroke:none;font-family:Sans"><flowRegion
         id="flowRegion3767-7-5-9-2"><rect
           id="rect3769-2-55-9-0"
           width="216.42857"
           height="70.714287"
           x="35"
           y="252.36218" /></flowRegion><flowPara
         id="flowPara3771-8-3-5-5"
         style="font-size:22px;font-style:normal;font-variant:normal;font-weight:normal;font-stretch:normal;font-family:FreeMono;-inkscape-font-specification:FreeMono">opcode 1</flowPara></flowRoot>    <rect
       style="fill:#ffffff;fill-opacity:1;fill-rule:nonzero;stroke:#000000;stroke-width:1.18321598;stroke-miterlimit:4;stroke-opacity:1;stroke-dasharray:none;stroke-dashoffset:0"
       id="rect3773-8-2-6-8"
       width="230"
       height="30"
       x="495"
       y="442.36218"
       ry="4.0626276e-09" />
    <flowRoot
       transform="translate(467,188.98718)"
       xml:space="preserve"
       id="flowRoot3765-6-5-2-6-7"
       style="font-size:40px;font-style:normal;font-weight:normal;line-height:125%;letter-spacing:0px;word-spacing:0px;fill:#000000;fill-opacity:1;stroke:none;font-family:Sans"><flowRegion
         id="flowRegion3767-7-5-9-2-2"><rect
           id="rect3769-2-55-9-0-2"
           width="260"
           height="72.012817"
           x="35"
           y="252.36218" /></flowRegion><flowPara
         id="flowPara3771-8-3-5-5-7"
         style="font-size:20px;font-style:normal;font-variant:normal;font-weight:normal;font-stretch:normal;font-family:FreeMono;-inkscape-font-specification:FreeMono">jump sym_addr+over</flowPara></flowRoot>    <rect
       style="opacity:0.54771788;fill:#ff2a2a;fill-opacity:1;fill-rule:nonzero;stroke:#000000;stroke-width:2;stroke-miterlimit:4;stroke-opacity:1;stroke-dasharray:none;stroke-dashoffset:0"
       id="rect4274"
       width="370"
       height="54.999996"
       x="-70"
       y="262.36218"
       ry="4.0626276e-09" />
    <flowRoot
       transform="translate(-15,17.98718)"
       xml:space="preserve"
       id="flowRoot3765-6-5-2-5"
       style="font-size:40px;font-style:normal;font-weight:normal;line-height:125%;letter-spacing:0px;word-spacing:0px;fill:#000000;fill-opacity:1;stroke:none;font-family:Sans"><flowRegion
         id="flowRegion3767-7-5-9-0"><rect
           id="rect3769-2-55-9-6"
           width="280"
           height="72.012817"
           x="35"
           y="252.36218" /></flowRegion><flowPara
         id="flowPara3771-8-3-5-59"
         style="font-size:22px;font-style:normal;font-variant:normal;font-weight:normal;font-stretch:normal;font-family:FreeMono;-inkscape-font-specification:FreeMono"> jump repl_addr</flowPara></flowRoot>    <path
       style="fill:none;stroke:#000000;stroke-width:1px;stroke-linecap:butt;stroke-linejoin:miter;stroke-opacity:1;marker-end:url(#Arrow1Mend)"
       d="m 310,272.36218 c 190,-60 530,-10 530,-10"
       id="path4306"
       inkscape:connector-curvature="0"
       sodipodi:nodetypes="cc" />
    <path
       style="fill:none;stroke:#000000;stroke-width:1px;stroke-linecap:butt;stroke-linejoin:miter;stroke-opacity:1;marker-end:url(#Arrow1Mend)"
       d="m 905,312.36218 c -120,-10 -240,55 -240,55"
       id="path4306-6-3"
       inkscape:connector-curvature="0"
       sodipodi:nodetypes="cc" />
    <path
       style="fill:none;stroke:#000000;stroke-width:1px;stroke-linecap:butt;stroke-linejoin:miter;stroke-opacity:1;marker-end:url(#Arrow1Mend)"
       d="m 495,462.36218 c -125,15 -465,-120 -465,-120"
       id="path4306-6-3-3"
       inkscape:connector-curvature="0"
       sodipodi:nodetypes="cc" />
    <flowRoot
       transform="translate(914,-9.9999974)"
       xml:space="preserve"
       id="flowRoot3765-0-4-3-8"
       style="font-size:40px;font-style:normal;font-weight:normal;line-height:125%;letter-spacing:0px;word-spacing:0px;fill:#000000;fill-opacity:1;stroke:none;font-family:Sans"><flowRegion
         id="flowRegion3767-1-8-8-0"><rect
           id="rect3769-3-2-1-0"
           width="216.42857"
           height="70.714287"
           x="35"
           y="252.36218" /></flowRegion><flowPara
         id="flowPara3771-15-3-0-6"
         style="font-size:22px;font-style:normal;font-variant:normal;font-weight:normal;font-stretch:normal;font-family:FreeMono;-inkscape-font-specification:FreeMono"><flowSpan
   style="font-weight:bold;fill:#007103;fill-opacity:1;-inkscape-font-specification:FreeMono Bold"
   id="flowSpan4839-4">repl_addr</flowSpan>:</flowPara></flowRoot>    <flowRoot
       transform="translate(-115,-22.012817)"
       xml:space="preserve"
       id="flowRoot3765-0-4-3-8-0"
       style="font-size:40px;font-style:normal;font-weight:normal;line-height:125%;letter-spacing:0px;word-spacing:0px;fill:#000000;fill-opacity:1;stroke:none;font-family:Sans"><flowRegion
         id="flowRegion3767-1-8-8-0-1"><rect
           id="rect3769-3-2-1-0-9"
           width="216.42857"
           height="70.714287"
           x="35"
           y="252.36218" /></flowRegion><flowPara
         id="flowPara3771-15-3-0-6-6"
         style="font-size:22px;font-style:normal;font-variant:normal;font-weight:normal;font-stretch:normal;font-family:FreeMono;-inkscape-font-specification:FreeMono"><flowSpan
   style="font-weight:bold;fill:#007103;fill-opacity:1;-inkscape-font-specification:FreeMono Bold"
   id="flowSpan4839-4-1">sym_addr</flowSpan>:</flowPara></flowRoot>    <flowRoot
       transform="translate(125,-22.012817)"
       xml:space="preserve"
       id="flowRoot3765-0-4-3-8-0-1"
       style="font-size:40px;font-style:normal;font-weight:normal;line-height:125%;letter-spacing:0px;word-spacing:0px;fill:#000000;fill-opacity:1;stroke:none;font-family:Sans"><flowRegion
         id="flowRegion3767-1-8-8-0-1-2"><rect
           id="rect3769-3-2-1-0-9-9"
           width="216.42857"
           height="70.714287"
           x="35"
           y="252.36218" /></flowRegion><flowPara
         id="flowPara3771-15-3-0-6-6-8"
         style="font-size:22px;font-style:normal;font-variant:normal;font-weight:bold;font-stretch:normal;fill:#ff2d2d;fill-opacity:1;font-family:FreeMono;-inkscape-font-specification:FreeMono Bold">first_jump</flowPara></flowRoot>    <flowRoot
       transform="translate(155,187.98718)"
       xml:space="preserve"
       id="flowRoot3765-0-4-3-8-0-1-1"
       style="font-size:40px;font-style:normal;font-weight:normal;line-height:125%;letter-spacing:0px;word-spacing:0px;fill:#000000;fill-opacity:1;stroke:none;font-family:Sans"><flowRegion
         id="flowRegion3767-1-8-8-0-1-2-7"><rect
           id="rect3769-3-2-1-0-9-9-2"
           width="216.42857"
           height="70.714287"
           x="35"
           y="252.36218" /></flowRegion><flowPara
         id="flowPara3771-15-3-0-6-6-8-3"
         style="font-size:22px;font-style:normal;font-variant:normal;font-weight:bold;font-stretch:normal;fill:#ff2d2d;fill-opacity:1;font-family:FreeMono;-inkscape-font-specification:FreeMono Bold">back_jump</flowPara></flowRoot>    <path
       style="fill:none;stroke:#000000;stroke-width:1px;stroke-linecap:butt;stroke-linejoin:miter;stroke-opacity:1;marker-end:url(#Arrow1Mend)"
       d="m -155,562.36218 c -50,-170 0,-300 0,-300"
       id="path4306-9"
       inkscape:connector-curvature="0"
       sodipodi:nodetypes="cc" />
    <flowRoot
       transform="translate(823.99998,150)"
       xml:space="preserve"
       id="flowRoot3765-0-4-3-8-7"
       style="font-size:40px;font-style:normal;font-weight:normal;line-height:125%;letter-spacing:0px;word-spacing:0px;fill:#000000;fill-opacity:1;stroke:none;font-family:Sans"><flowRegion
         id="flowRegion3767-1-8-8-0-5"><rect
           id="rect3769-3-2-1-0-2"
           width="301.00003"
           height="70"
           x="35"
           y="252.36218" /></flowRegion><flowPara
         id="flowPara3771-15-3-0-6-7"
         style="font-size:22px;font-style:normal;font-variant:normal;font-weight:normal;font-stretch:normal;font-family:FreeMono;-inkscape-font-specification:FreeMono"><flowSpan
   style="font-weight:bold;fill:#007103;fill-opacity:1;-inkscape-font-specification:FreeMono Bold"
   id="flowSpan4839-4-5">orig_addr</flowSpan>: reloc_addr</flowPara></flowRoot>    <rect
       style="fill:#ffffff;fill-opacity:1;fill-rule:nonzero;stroke:#000000;stroke-width:1.18321598;stroke-miterlimit:4;stroke-opacity:1;stroke-dasharray:none;stroke-dashoffset:0"
       id="rect3773-5-4"
       width="230"
       height="29.999998"
       x="495"
       y="412.36218"
       ry="4.0626276e-09" />
    <flowRoot
       transform="translate(476,157.98718)"
       xml:space="preserve"
       id="flowRoot3765-6-8-4"
       style="font-size:40px;font-style:normal;font-weight:normal;line-height:125%;letter-spacing:0px;word-spacing:0px;fill:#000000;fill-opacity:1;stroke:none;font-family:Sans"><flowRegion
         id="flowRegion3767-7-4-8"><rect
           id="rect3769-2-5-08"
           width="216.42857"
           height="70.714287"
           x="35"
           y="252.36218" /></flowRegion><flowPara
         id="flowPara3771-8-2-62"
         style="font-size:22px;font-style:normal;font-variant:normal;font-weight:normal;font-stretch:normal;font-family:FreeMono;-inkscape-font-specification:FreeMono">opcode 2</flowPara></flowRoot>  </g>
</svg>
